…
Next I used rvest to read scrape the information extract the text and make it into a tibble. The tibble wasn’t in the proper format so I had to do some data wrangling to tidy it up so I used mutate to create another column so I could extract out the rocket names and make another dataframe and then perform a join with the original dataset.

table <- site %>% 
  html_nodes(xpath = data) %>% 
  html_text() %>% 
  tibble() %>% 
  mutate(ID = seq(1,5,1) %>% rep(7) %>% as.factor())
table

## # A tibble: 35 x 2
##    .                                                                 ID   
##    <chr>                                                             <fct>
##  1 Falcon Heavy                                                      1    
##  2 " Status: First test flight took place February 6 "               2    
##  3 " Height: 229.6 feet (70 meters) "                                3    
##  4 " Liftoff thrust: 5 million pounds "                              4    
##  5 " Capability: 140,660 pounds (63,800 kilograms) to LEO "          5    
##  6 Space Launch System                                               1    
##  7 " Status: No earlier than late 2019 "                             2    
##  8 " Height: 322 - 365 feet (98.1 - 111.3 meters) "                  3    
##  9 " Liftoff thrust: up to 11.9 million pounds (5 million kg) "      4    
## 10 " Capability: 150,000 - 290,000 pounds (70,000 - 130,000 kilogra… 5    
## # ... with 25 more rows

After the rocket names were isolated I needed to repeat them multiple times to match with the ‘table’ dataframe.

names <- table %>%
  filter(ID == 1) %>% 
  slice(rep(1:7, each=4)) # Repeats each row  4 times
names

## # A tibble: 28 x 2
##    .                   ID   
##    <chr>               <fct>
##  1 Falcon Heavy        1    
##  2 Falcon Heavy        1    
##  3 Falcon Heavy        1    
##  4 Falcon Heavy        1    
##  5 Space Launch System 1    
##  6 Space Launch System 1    
##  7 Space Launch System 1    
##  8 Space Launch System 1    
##  9 "Saturn V "         1    
## 10 "Saturn V "         1    
## # ... with 18 more rows

The next step is to combine the ‘names’ dataframe with the original ‘table’ and then clean up the column names using rename. One of the trickiest parts of data wrangling is string manipulations and regular expressions (regex) which can be hard to grasp at first. Typically when you scrape data, you’ll inevitably get more information than you want or need so we can use regex to extract the specific information that we want. In this case, I used str_replace_all to find a specific pattern and replace it with nothing so I just have the infromation that I want (numerical values in my case).

df <- table %>%
  filter(!ID == 1) %>% 
  bind_cols(names) %>%
  rename(Data = ".", Rocket = ".1") %>% 
  separate(Data , into = c("Feature","Value"), sep =":") %>% 
  select(Rocket, Feature, Value) %>% 
  mutate(Value = str_replace_all(Value, "\\s*\\([^\\)]+\\)|[:alpha:]|\\s*",""), # regex
         Feature = str_trim(Feature))
df

## # A tibble: 28 x 3
##    Rocket              Feature        Value          
##    <chr>               <chr>          <chr>          
##  1 Falcon Heavy        Status         6              
##  2 Falcon Heavy        Height         229.6          
##  3 Falcon Heavy        Liftoff thrust 5              
##  4 Falcon Heavy        Capability     140,660        
##  5 Space Launch System Status         2019           
##  6 Space Launch System Height         322-365        
##  7 Space Launch System Liftoff thrust 11.9           
##  8 Space Launch System Capability     150,000-290,000
##  9 "Saturn V "         Status         1973           
## 10 "Saturn V "         Height         363            
## # ... with 18 more rows
…
